<?xml version="1.0" encoding="UTF-8"?>
<svg xmlns="http://www.w3.org/2000/svg" xmlns:xlink="http://www.w3.org/1999/xlink" width="504pt" height="504pt" viewBox="0 0 504 504" version="1.1">
<defs>
<g>
<symbol overflow="visible" id="glyph0-0">
<path style="stroke:none;" d=""/>
</symbol>
<symbol overflow="visible" id="glyph0-1">
<path style="stroke:none;" d="M 6.21875 -4.21875 C 6.21875 -7.171875 5.140625 -8.765625 3.296875 -8.765625 C 1.46875 -8.765625 0.375 -7.15625 0.375 -4.296875 C 0.375 -1.421875 1.46875 0.1875 3.296875 0.1875 C 5.09375 0.1875 6.21875 -1.421875 6.21875 -4.21875 Z M 4.859375 -4.3125 C 4.859375 -1.90625 4.453125 -0.953125 3.28125 -0.953125 C 2.15625 -0.953125 1.734375 -1.953125 1.734375 -4.28125 C 1.734375 -6.609375 2.15625 -7.578125 3.296875 -7.578125 C 4.4375 -7.578125 4.859375 -6.59375 4.859375 -4.3125 Z M 4.859375 -4.3125 "/>
</symbol>
<symbol overflow="visible" id="glyph0-2">
<path style="stroke:none;" d="M 6.265625 -6.140625 C 6.265625 -7.578125 5.015625 -8.765625 3.40625 -8.765625 C 1.671875 -8.765625 0.515625 -7.75 0.453125 -5.5625 L 1.78125 -5.5625 C 1.875 -7.109375 2.328125 -7.578125 3.375 -7.578125 C 4.328125 -7.578125 4.90625 -7.03125 4.90625 -6.125 C 4.90625 -5.453125 4.546875 -4.96875 3.796875 -4.53125 L 2.6875 -3.90625 C 0.90625 -2.90625 0.359375 -2 0.25 0 L 6.203125 0 L 6.203125 -1.3125 L 1.75 -1.3125 C 1.84375 -1.875 2.1875 -2.21875 3.234375 -2.828125 L 4.421875 -3.484375 C 5.609375 -4.109375 6.265625 -5.09375 6.265625 -6.140625 Z M 6.265625 -6.140625 "/>
</symbol>
<symbol overflow="visible" id="glyph0-3">
<path style="stroke:none;" d="M 6.375 -2.171875 L 6.375 -3.25 L 5.109375 -3.25 L 5.109375 -8.765625 L 4.125 -8.765625 L 0.1875 -3.328125 L 0.1875 -2.046875 L 3.78125 -2.046875 L 3.78125 0 L 5.109375 0 L 5.109375 -2.046875 L 6.375 -2.046875 Z M 3.921875 -3.25 L 1.515625 -3.25 L 4.015625 -6.75 L 3.78125 -6.84375 L 3.78125 -3.25 Z M 3.921875 -3.25 "/>
</symbol>
<symbol overflow="visible" id="glyph0-4">
<path style="stroke:none;" d="M 6.28125 -2.765625 C 6.28125 -4.359375 5.078125 -5.5625 3.546875 -5.5625 C 2.71875 -5.5625 1.9375 -5.203125 1.484375 -4.578125 L 1.734375 -4.46875 C 1.734375 -6.546875 2.28125 -7.578125 3.484375 -7.578125 C 4.234375 -7.578125 4.609375 -7.234375 4.796875 -6.28125 L 6.125 -6.28125 C 5.90625 -7.8125 4.859375 -8.765625 3.5625 -8.765625 C 1.578125 -8.765625 0.375 -6.96875 0.375 -4.015625 C 0.375 -1.359375 1.421875 0.1875 3.375 0.1875 C 4.984375 0.1875 6.28125 -1.109375 6.28125 -2.765625 Z M 4.9375 -2.6875 C 4.9375 -1.625 4.359375 -1.015625 3.390625 -1.015625 C 2.40625 -1.015625 1.78125 -1.65625 1.78125 -2.75 C 1.78125 -3.796875 2.375 -4.359375 3.421875 -4.359375 C 4.4375 -4.359375 4.9375 -3.828125 4.9375 -2.6875 Z M 4.9375 -2.6875 "/>
</symbol>
<symbol overflow="visible" id="glyph0-5">
<path style="stroke:none;" d="M 6.28125 -2.53125 C 6.28125 -3.484375 5.671875 -4.265625 4.953125 -4.625 C 5.65625 -5.046875 5.984375 -5.5625 5.984375 -6.375 C 5.984375 -7.703125 4.8125 -8.765625 3.296875 -8.765625 C 1.796875 -8.765625 0.59375 -7.703125 0.59375 -6.375 C 0.59375 -5.578125 0.921875 -5.046875 1.625 -4.625 C 0.921875 -4.265625 0.296875 -3.484375 0.296875 -2.546875 C 0.296875 -0.984375 1.625 0.1875 3.296875 0.1875 C 4.984375 0.1875 6.28125 -0.984375 6.28125 -2.53125 Z M 4.625 -6.34375 C 4.625 -5.5625 4.1875 -5.15625 3.296875 -5.15625 C 2.40625 -5.15625 1.953125 -5.5625 1.953125 -6.359375 C 1.953125 -7.171875 2.40625 -7.578125 3.296875 -7.578125 C 4.203125 -7.578125 4.625 -7.171875 4.625 -6.34375 Z M 4.9375 -2.515625 C 4.9375 -1.515625 4.359375 -1.015625 3.28125 -1.015625 C 2.25 -1.015625 1.65625 -1.53125 1.65625 -2.515625 C 1.65625 -3.515625 2.25 -4.015625 3.296875 -4.015625 C 4.359375 -4.015625 4.9375 -3.515625 4.9375 -2.515625 Z M 4.9375 -2.515625 "/>
</symbol>
<symbol overflow="visible" id="glyph0-6">
<path style="stroke:none;" d="M 4.296875 -0.125 L 4.296875 -8.765625 L 3.359375 -8.765625 C 2.953125 -7.328125 2.859375 -7.28125 1.078125 -7.0625 L 1.078125 -6.0625 L 2.96875 -6.0625 L 2.96875 0 L 4.296875 0 Z M 4.296875 -0.125 "/>
</symbol>
<symbol overflow="visible" id="glyph0-7">
<path style="stroke:none;" d="M 3.1875 -0.125 L 3.1875 -1.15625 C 2.921875 -1.0625 2.765625 -1.0625 2.5625 -1.0625 C 2.140625 -1.0625 2.140625 -1.046875 2.140625 -1.484375 L 2.140625 -5.46875 L 3.1875 -5.46875 L 3.1875 -6.546875 L 2.140625 -6.546875 L 2.140625 -8.28125 L 0.875 -8.28125 L 0.875 -6.546875 L 0.03125 -6.546875 L 0.03125 -5.46875 L 0.875 -5.46875 L 0.875 -1.046875 C 0.875 -0.40625 1.453125 0.078125 2.234375 0.078125 C 2.46875 0.078125 2.71875 0.0625 3.1875 -0.03125 Z M 3.1875 -0.125 "/>
</symbol>
<symbol overflow="visible" id="glyph0-8">
<path style="stroke:none;" d="M 1.96875 -0.125 L 1.96875 -6.546875 L 0.703125 -6.546875 L 0.703125 0 L 1.96875 0 Z M 2.09375 -7.375 L 2.09375 -8.75 L 0.578125 -8.75 L 0.578125 -7.234375 L 2.09375 -7.234375 Z M 2.09375 -7.375 "/>
</symbol>
<symbol overflow="visible" id="glyph0-9">
<path style="stroke:none;" d="M 9.25 -0.125 L 9.25 -4.84375 C 9.25 -5.96875 8.5 -6.734375 7.3125 -6.734375 C 6.484375 -6.734375 5.875 -6.4375 5.40625 -5.875 C 5.109375 -6.40625 4.515625 -6.734375 3.703125 -6.734375 C 2.859375 -6.734375 2.203125 -6.390625 1.65625 -5.625 L 1.890625 -5.53125 L 1.890625 -6.546875 L 0.703125 -6.546875 L 0.703125 0 L 1.984375 0 L 1.984375 -4.078125 C 1.984375 -4.984375 2.515625 -5.59375 3.328125 -5.59375 C 4.0625 -5.59375 4.34375 -5.265625 4.34375 -4.46875 L 4.34375 0 L 5.609375 0 L 5.609375 -4.078125 C 5.609375 -4.984375 6.15625 -5.59375 6.96875 -5.59375 C 7.703125 -5.59375 7.984375 -5.25 7.984375 -4.46875 L 7.984375 0 L 9.25 0 Z M 9.25 -0.125 "/>
</symbol>
<symbol overflow="visible" id="glyph0-10">
<path style="stroke:none;" d="M 6.28125 -2.984375 C 6.28125 -3.90625 6.21875 -4.46875 6.03125 -4.9375 C 5.625 -5.96875 4.53125 -6.734375 3.359375 -6.734375 C 1.609375 -6.734375 0.34375 -5.296875 0.34375 -3.234375 C 0.34375 -1.171875 1.578125 0.1875 3.34375 0.1875 C 4.78125 0.1875 5.90625 -0.765625 6.1875 -2.171875 L 4.921875 -2.171875 C 4.59375 -1.21875 4.171875 -1.015625 3.375 -1.015625 C 2.328125 -1.015625 1.6875 -1.546875 1.65625 -2.859375 L 6.28125 -2.859375 Z M 5.1875 -3.78125 C 5.1875 -3.78125 4.984375 -3.921875 4.984375 -3.9375 L 1.6875 -3.9375 C 1.765625 -4.921875 2.34375 -5.546875 3.34375 -5.546875 C 4.328125 -5.546875 4.9375 -4.859375 4.9375 -3.875 Z M 5.1875 -3.78125 "/>
</symbol>
<symbol overflow="visible" id="glyph0-11">
<path style="stroke:none;" d=""/>
</symbol>
<symbol overflow="visible" id="glyph0-12">
<path style="stroke:none;" d="M 3.59375 2.3125 C 2.53125 0.59375 1.984375 -1.3125 1.984375 -3.234375 C 1.984375 -5.140625 2.53125 -7.078125 3.734375 -9.015625 L 2.765625 -9.015625 C 1.53125 -7.40625 0.734375 -5.125 0.734375 -3.234375 C 0.734375 -1.34375 1.53125 0.9375 2.765625 2.546875 L 3.734375 2.546875 Z M 3.59375 2.3125 "/>
</symbol>
<symbol overflow="visible" id="glyph0-13">
<path style="stroke:none;" d="M 6.078125 -0.125 L 6.078125 -9.015625 L 4.796875 -9.015625 L 4.796875 -5.625 L 5.046875 -5.71875 C 4.625 -6.359375 3.859375 -6.734375 3.015625 -6.734375 C 1.375 -6.734375 0.171875 -5.34375 0.171875 -3.34375 C 0.171875 -1.21875 1.359375 0.1875 3.046875 0.1875 C 3.90625 0.1875 4.609375 -0.1875 5.140625 -0.953125 L 4.90625 -1.0625 L 4.90625 0 L 6.078125 0 Z M 4.796875 -3.25 C 4.796875 -1.796875 4.25 -1.015625 3.1875 -1.015625 C 2.09375 -1.015625 1.484375 -1.8125 1.484375 -3.28125 C 1.484375 -4.734375 2.09375 -5.53125 3.1875 -5.53125 C 4.265625 -5.53125 4.796875 -4.703125 4.796875 -3.25 Z M 4.796875 -3.25 "/>
</symbol>
<symbol overflow="visible" id="glyph0-14">
<path style="stroke:none;" d="M 6.546875 -0.15625 L 6.546875 -1.078125 C 6.3125 -1.015625 6.265625 -1.015625 6.203125 -1.015625 C 5.859375 -1.015625 5.796875 -1.0625 5.796875 -1.375 L 5.796875 -4.890625 C 5.796875 -6 4.84375 -6.734375 3.296875 -6.734375 C 1.78125 -6.734375 0.703125 -6.015625 0.640625 -4.421875 L 1.90625 -4.421875 C 2 -5.328125 2.328125 -5.546875 3.265625 -5.546875 C 4.15625 -5.546875 4.53125 -5.34375 4.53125 -4.734375 L 4.53125 -4.46875 C 4.53125 -4.0625 4.421875 -4.015625 3.625 -3.90625 C 2.203125 -3.734375 1.984375 -3.6875 1.609375 -3.53125 C 0.875 -3.234375 0.359375 -2.53125 0.359375 -1.765625 C 0.359375 -0.625 1.296875 0.1875 2.5625 0.1875 C 3.375 0.1875 4.25 -0.1875 4.625 -0.59375 C 4.671875 -0.390625 5.25 0.078125 5.734375 0.078125 C 5.9375 0.078125 6.09375 0.0625 6.546875 -0.046875 Z M 4.53125 -2.296875 C 4.53125 -1.40625 3.75 -0.953125 2.78125 -0.953125 C 2 -0.953125 1.6875 -1.109375 1.6875 -1.78125 C 1.6875 -2.453125 1.984375 -2.609375 3.0625 -2.765625 C 4.109375 -2.90625 4.328125 -2.953125 4.53125 -3.03125 Z M 4.53125 -2.296875 "/>
</symbol>
<symbol overflow="visible" id="glyph0-15">
<path style="stroke:none;" d="M 5.734375 -6.546875 L 4.5625 -6.546875 L 2.765625 -1.53125 L 3.046875 -1.53125 L 1.390625 -6.546875 L 0.046875 -6.546875 L 2.21875 -0.109375 L 1.84375 0.890625 C 1.671875 1.328125 1.609375 1.375 1.171875 1.375 C 1.03125 1.375 0.859375 1.34375 0.5 1.265625 L 0.5 2.40625 C 0.75 2.53125 1.0625 2.609375 1.3125 2.609375 C 2.03125 2.609375 2.734375 2.09375 3.078125 1.1875 L 5.921875 -6.546875 Z M 5.734375 -6.546875 "/>
</symbol>
<symbol overflow="visible" id="glyph0-16">
<path style="stroke:none;" d="M 5.640625 -1.890625 C 5.640625 -2.828125 4.984375 -3.4375 3.734375 -3.734375 L 2.765625 -3.953125 C 1.953125 -4.15625 1.734375 -4.28125 1.734375 -4.734375 C 1.734375 -5.296875 2.125 -5.546875 2.9375 -5.546875 C 3.75 -5.546875 4.03125 -5.328125 4.0625 -4.53125 L 5.390625 -4.53125 C 5.375 -5.90625 4.421875 -6.734375 2.96875 -6.734375 C 1.515625 -6.734375 0.421875 -5.84375 0.421875 -4.6875 C 0.421875 -3.703125 1.0625 -3.09375 2.5625 -2.734375 L 3.484375 -2.515625 C 4.1875 -2.34375 4.3125 -2.265625 4.3125 -1.8125 C 4.3125 -1.21875 3.875 -1.015625 3 -1.015625 C 2.09375 -1.015625 1.734375 -1.09375 1.578125 -2.1875 L 0.265625 -2.1875 C 0.3125 -0.59375 1.265625 0.1875 2.921875 0.1875 C 4.5 0.1875 5.640625 -0.6875 5.640625 -1.890625 Z M 5.640625 -1.890625 "/>
</symbol>
<symbol overflow="visible" id="glyph0-17">
<path style="stroke:none;" d="M 3.234375 -5.609375 L 3.234375 -6.546875 L 2.1875 -6.546875 L 2.1875 -7.40625 C 2.1875 -7.828125 2.296875 -7.90625 2.75 -7.90625 C 2.828125 -7.90625 2.875 -7.90625 3.234375 -7.890625 L 3.234375 -8.96875 C 2.875 -9.03125 2.734375 -9.046875 2.53125 -9.046875 C 1.609375 -9.046875 0.90625 -8.390625 0.90625 -7.484375 L 0.90625 -6.546875 L 0.078125 -6.546875 L 0.078125 -5.46875 L 0.90625 -5.46875 L 0.90625 0 L 2.1875 0 L 2.1875 -5.46875 L 3.234375 -5.46875 Z M 3.234375 -5.609375 "/>
</symbol>
<symbol overflow="visible" id="glyph0-18">
<path style="stroke:none;" d="M 3.984375 -5.546875 L 3.984375 -6.6875 C 3.6875 -6.71875 3.59375 -6.734375 3.46875 -6.734375 C 2.8125 -6.734375 2.21875 -6.3125 1.640625 -5.375 L 1.890625 -5.28125 L 1.890625 -6.546875 L 0.703125 -6.546875 L 0.703125 0 L 1.96875 0 L 1.96875 -3.390625 C 1.96875 -4.8125 2.296875 -5.390625 3.984375 -5.40625 Z M 3.984375 -5.546875 "/>
</symbol>
<symbol overflow="visible" id="glyph0-19">
<path style="stroke:none;" d="M 6 -1.15625 L 6 -6.546875 L 4.796875 -6.546875 L 4.796875 -5.515625 L 5.046875 -5.609375 C 4.53125 -6.34375 3.828125 -6.734375 3.03125 -6.734375 C 1.421875 -6.734375 0.203125 -5.25 0.203125 -3.21875 C 0.203125 -1.234375 1.46875 0.1875 2.9375 0.1875 C 3.734375 0.1875 4.375 -0.1875 5.046875 -0.984375 L 4.796875 -1.078125 L 4.796875 -0.65625 C 4.796875 1.015625 4.265625 1.515625 3.09375 1.515625 C 2.296875 1.515625 1.828125 1.359375 1.6875 0.453125 L 0.390625 0.453125 C 0.515625 1.78125 1.578125 2.609375 3.0625 2.609375 C 5.03125 2.609375 6 1.609375 6 -1.15625 Z M 4.703125 -3.234375 C 4.703125 -1.734375 4.203125 -1.015625 3.140625 -1.015625 C 2.046875 -1.015625 1.53125 -1.75 1.53125 -3.28125 C 1.53125 -4.78125 2.0625 -5.546875 3.125 -5.546875 C 4.21875 -5.546875 4.703125 -4.765625 4.703125 -3.234375 Z M 4.703125 -3.234375 "/>
</symbol>
<symbol overflow="visible" id="glyph0-20">
<path style="stroke:none;" d="M 5.96875 -0.125 L 5.96875 -4.890625 C 5.96875 -5.921875 5.0625 -6.734375 3.859375 -6.734375 C 2.921875 -6.734375 2.203125 -6.34375 1.65625 -5.453125 L 1.890625 -5.359375 L 1.890625 -6.546875 L 0.703125 -6.546875 L 0.703125 0 L 1.96875 0 L 1.96875 -3.59375 C 1.96875 -4.890625 2.53125 -5.59375 3.546875 -5.59375 C 4.34375 -5.59375 4.703125 -5.25 4.703125 -4.484375 L 4.703125 0 L 5.96875 0 Z M 5.96875 -0.125 "/>
</symbol>
<symbol overflow="visible" id="glyph0-21">
<path style="stroke:none;" d="M 6.25 -3.234375 C 6.25 -5.40625 5.078125 -6.734375 3.265625 -6.734375 C 1.5 -6.734375 0.28125 -5.390625 0.28125 -3.28125 C 0.28125 -1.15625 1.484375 0.1875 3.28125 0.1875 C 5.046875 0.1875 6.25 -1.15625 6.25 -3.234375 Z M 4.9375 -3.234375 C 4.9375 -1.765625 4.375 -1.015625 3.28125 -1.015625 C 2.15625 -1.015625 1.609375 -1.75 1.609375 -3.28125 C 1.609375 -4.78125 2.15625 -5.546875 3.28125 -5.546875 C 4.40625 -5.546875 4.9375 -4.796875 4.9375 -3.234375 Z M 4.9375 -3.234375 "/>
</symbol>
<symbol overflow="visible" id="glyph0-22">
<path style="stroke:none;" d="M 3.203125 -3.234375 C 3.203125 -5.125 2.40625 -7.40625 1.171875 -9.015625 L 0.203125 -9.015625 C 1.40625 -7.0625 1.953125 -5.140625 1.953125 -3.234375 C 1.953125 -1.3125 1.40625 0.609375 0.203125 2.546875 L 1.171875 2.546875 C 2.40625 0.9375 3.203125 -1.34375 3.203125 -3.234375 Z M 3.203125 -3.234375 "/>
</symbol>
<symbol overflow="visible" id="glyph0-23">
<path style="stroke:none;" d="M 3.40625 -9.015625 L 2.65625 -9.015625 L -0.28125 0.234375 L 0.640625 0.234375 L 3.59375 -9.015625 Z M 3.40625 -9.015625 "/>
</symbol>
<symbol overflow="visible" id="glyph0-24">
<path style="stroke:none;" d="M 6.40625 -3.21875 C 6.40625 -5.328125 5.25 -6.734375 3.578125 -6.734375 C 2.71875 -6.734375 1.9375 -6.3125 1.46875 -5.5625 L 1.703125 -5.46875 L 1.703125 -6.546875 L 0.515625 -6.546875 L 0.515625 2.609375 L 1.78125 2.609375 L 1.78125 -0.890625 L 1.546875 -0.796875 C 2.078125 -0.140625 2.765625 0.1875 3.59375 0.1875 C 5.203125 0.1875 6.40625 -1.21875 6.40625 -3.21875 Z M 5.09375 -3.234375 C 5.09375 -1.8125 4.5 -1.015625 3.40625 -1.015625 C 2.359375 -1.015625 1.78125 -1.75 1.78125 -3.234375 C 1.78125 -4.703125 2.359375 -5.53125 3.40625 -5.53125 C 4.515625 -5.53125 5.09375 -4.734375 5.09375 -3.234375 Z M 5.09375 -3.234375 "/>
</symbol>
<symbol overflow="visible" id="glyph0-25">
<path style="stroke:none;" d="M 1.9375 -0.125 L 1.9375 -9.015625 L 0.671875 -9.015625 L 0.671875 0 L 1.9375 0 Z M 1.9375 -0.125 "/>
</symbol>
<symbol overflow="visible" id="glyph0-26">
<path style="stroke:none;" d="M 5.71875 -2.421875 L 4.59375 -2.421875 C 4.40625 -1.28125 4.03125 -1.015625 3.1875 -1.015625 C 2.078125 -1.015625 1.546875 -1.734375 1.546875 -3.21875 C 1.546875 -4.78125 2.0625 -5.546875 3.15625 -5.546875 C 4 -5.546875 4.375 -5.1875 4.53125 -4.171875 L 5.796875 -4.171875 C 5.65625 -5.84375 4.578125 -6.734375 3.171875 -6.734375 C 1.46875 -6.734375 0.234375 -5.296875 0.234375 -3.21875 C 0.234375 -1.1875 1.453125 0.1875 3.15625 0.1875 C 4.65625 0.1875 5.734375 -0.859375 5.875 -2.421875 Z M 5.71875 -2.421875 "/>
</symbol>
<symbol overflow="visible" id="glyph0-27">
<path style="stroke:none;" d="M 7.25 -7.890625 L 7.25 -9.015625 L 0.109375 -9.015625 L 0.109375 -7.765625 L 2.984375 -7.765625 L 2.984375 0 L 4.375 0 L 4.375 -7.765625 L 7.25 -7.765625 Z M 7.25 -7.890625 "/>
</symbol>
<symbol overflow="visible" id="glyph0-28">
<path style="stroke:none;" d="M 6.40625 -3.34375 C 6.40625 -5.390625 5.25 -6.734375 3.59375 -6.734375 C 2.71875 -6.734375 2 -6.375 1.53125 -5.65625 L 1.78125 -5.5625 L 1.78125 -9.015625 L 0.5 -9.015625 L 0.5 0 L 1.6875 0 L 1.6875 -1.03125 L 1.4375 -0.9375 C 1.921875 -0.203125 2.65625 0.1875 3.546875 0.1875 C 5.203125 0.1875 6.40625 -1.3125 6.40625 -3.34375 Z M 5.09375 -3.28125 C 5.09375 -1.859375 4.484375 -1.015625 3.390625 -1.015625 C 2.34375 -1.015625 1.78125 -1.84375 1.78125 -3.28125 C 1.78125 -4.75 2.34375 -5.578125 3.390625 -5.53125 C 4.515625 -5.53125 5.09375 -4.6875 5.09375 -3.28125 Z M 5.09375 -3.28125 "/>
</symbol>
<symbol overflow="visible" id="glyph0-29">
<path style="stroke:none;" d="M 5.921875 -0.125 L 5.921875 -6.546875 L 4.640625 -6.546875 L 4.640625 -2.953125 C 4.640625 -1.671875 4.109375 -0.953125 3.078125 -0.953125 C 2.28125 -0.953125 1.90625 -1.3125 1.90625 -2.0625 L 1.90625 -6.546875 L 0.640625 -6.546875 L 0.640625 -1.671875 C 0.640625 -0.625 1.5625 0.1875 2.78125 0.1875 C 3.703125 0.1875 4.390625 -0.1875 4.984375 -1.015625 L 4.734375 -1.109375 L 4.734375 0 L 5.921875 0 Z M 5.921875 -0.125 "/>
</symbol>
<symbol overflow="visible" id="glyph0-30">
<path style="stroke:none;" d="M 7.578125 -2.53125 C 7.578125 -3.609375 6.78125 -4.53125 5.59375 -4.859375 L 3.390625 -5.453125 C 2.34375 -5.71875 2.09375 -5.9375 2.09375 -6.609375 C 2.09375 -7.5 2.734375 -8.03125 3.90625 -8.03125 C 5.296875 -8.03125 5.953125 -7.53125 5.953125 -6.25 L 7.28125 -6.25 C 7.28125 -8.09375 5.96875 -9.234375 3.953125 -9.234375 C 2.03125 -9.234375 0.703125 -8.046875 0.703125 -6.453125 C 0.703125 -5.390625 1.40625 -4.578125 2.5625 -4.28125 L 4.734375 -3.703125 C 5.828125 -3.421875 6.1875 -3.109375 6.1875 -2.421875 C 6.1875 -1.46875 5.609375 -1.03125 4.109375 -1.03125 C 2.453125 -1.03125 1.765625 -1.734375 1.765625 -3.109375 L 0.4375 -3.109375 C 0.4375 -0.90625 1.96875 0.21875 4.03125 0.21875 C 6.25 0.21875 7.578125 -0.96875 7.578125 -2.53125 Z M 7.578125 -2.53125 "/>
</symbol>
<symbol overflow="visible" id="glyph0-31">
<path style="stroke:none;" d="M 7.078125 -7.890625 L 7.078125 -9.015625 L 0.9375 -9.015625 L 0.9375 0 L 2.328125 0 L 2.328125 -3.984375 L 6.5 -3.984375 L 6.5 -5.234375 L 2.328125 -5.234375 L 2.328125 -7.765625 L 7.078125 -7.765625 Z M 7.078125 -7.890625 "/>
</symbol>
<symbol overflow="visible" id="glyph1-0">
<path style="stroke:none;" d=""/>
</symbol>
<symbol overflow="visible" id="glyph1-1">
<path style="stroke:none;" d="M -6.140625 -6.265625 C -7.578125 -6.265625 -8.765625 -5.015625 -8.765625 -3.40625 C -8.765625 -1.671875 -7.75 -0.515625 -5.5625 -0.453125 L -5.5625 -1.78125 C -7.109375 -1.875 -7.578125 -2.328125 -7.578125 -3.375 C -7.578125 -4.328125 -7.03125 -4.90625 -6.125 -4.90625 C -5.453125 -4.90625 -4.96875 -4.546875 -4.53125 -3.796875 L -3.90625 -2.6875 C -2.90625 -0.90625 -2 -0.359375 0 -0.25 L 0 -6.203125 L -1.3125 -6.203125 L -1.3125 -1.75 C -1.875 -1.84375 -2.21875 -2.1875 -2.828125 -3.234375 L -3.484375 -4.421875 C -4.109375 -5.609375 -5.09375 -6.265625 -6.140625 -6.265625 Z M -6.140625 -6.265625 "/>
</symbol>
<symbol overflow="visible" id="glyph1-2">
<path style="stroke:none;" d="M -2.171875 -6.375 L -3.25 -6.375 L -3.25 -5.109375 L -8.765625 -5.109375 L -8.765625 -4.125 L -3.328125 -0.1875 L -2.046875 -0.1875 L -2.046875 -3.78125 L 0 -3.78125 L 0 -5.109375 L -2.046875 -5.109375 L -2.046875 -6.375 Z M -3.25 -3.921875 L -3.25 -1.515625 L -6.75 -4.015625 L -6.84375 -3.78125 L -3.25 -3.78125 Z M -3.25 -3.921875 "/>
</symbol>
<symbol overflow="visible" id="glyph1-3">
<path style="stroke:none;" d="M -2.765625 -6.28125 C -4.359375 -6.28125 -5.5625 -5.078125 -5.5625 -3.546875 C -5.5625 -2.71875 -5.203125 -1.9375 -4.578125 -1.484375 L -4.46875 -1.734375 C -6.546875 -1.734375 -7.578125 -2.28125 -7.578125 -3.484375 C -7.578125 -4.234375 -7.234375 -4.609375 -6.28125 -4.796875 L -6.28125 -6.125 C -7.8125 -5.90625 -8.765625 -4.859375 -8.765625 -3.5625 C -8.765625 -1.578125 -6.96875 -0.375 -4.015625 -0.375 C -1.359375 -0.375 0.1875 -1.421875 0.1875 -3.375 C 0.1875 -4.984375 -1.109375 -6.28125 -2.765625 -6.28125 Z M -2.6875 -4.9375 C -1.625 -4.9375 -1.015625 -4.359375 -1.015625 -3.390625 C -1.015625 -2.40625 -1.65625 -1.78125 -2.75 -1.78125 C -3.796875 -1.78125 -4.359375 -2.375 -4.359375 -3.421875 C -4.359375 -4.4375 -3.828125 -4.9375 -2.6875 -4.9375 Z M -2.6875 -4.9375 "/>
</symbol>
<symbol overflow="visible" id="glyph1-4">
<path style="stroke:none;" d="M -2.53125 -6.28125 C -3.484375 -6.28125 -4.265625 -5.671875 -4.625 -4.953125 C -5.046875 -5.65625 -5.5625 -5.984375 -6.375 -5.984375 C -7.703125 -5.984375 -8.765625 -4.8125 -8.765625 -3.296875 C -8.765625 -1.796875 -7.703125 -0.59375 -6.375 -0.59375 C -5.578125 -0.59375 -5.046875 -0.921875 -4.625 -1.625 C -4.265625 -0.921875 -3.484375 -0.296875 -2.546875 -0.296875 C -0.984375 -0.296875 0.1875 -1.625 0.1875 -3.296875 C 0.1875 -4.984375 -0.984375 -6.28125 -2.53125 -6.28125 Z M -6.34375 -4.625 C -5.5625 -4.625 -5.15625 -4.1875 -5.15625 -3.296875 C -5.15625 -2.40625 -5.5625 -1.953125 -6.359375 -1.953125 C -7.171875 -1.953125 -7.578125 -2.40625 -7.578125 -3.296875 C -7.578125 -4.203125 -7.171875 -4.625 -6.34375 -4.625 Z M -2.515625 -4.9375 C -1.515625 -4.9375 -1.015625 -4.359375 -1.015625 -3.28125 C -1.015625 -2.25 -1.53125 -1.65625 -2.515625 -1.65625 C -3.515625 -1.65625 -4.015625 -2.25 -4.015625 -3.296875 C -4.015625 -4.359375 -3.515625 -4.9375 -2.515625 -4.9375 Z M -2.515625 -4.9375 "/>
</symbol>
<symbol overflow="visible" id="glyph1-5">
<path style="stroke:none;" d="M -0.125 -4.296875 L -8.765625 -4.296875 L -8.765625 -3.359375 C -7.328125 -2.953125 -7.28125 -2.859375 -7.0625 -1.078125 L -6.0625 -1.078125 L -6.0625 -2.96875 L 0 -2.96875 L 0 -4.296875 Z M -0.125 -4.296875 "/>
</symbol>
<symbol overflow="visible" id="glyph1-6">
<path style="stroke:none;" d="M -4.21875 -6.21875 C -7.171875 -6.21875 -8.765625 -5.140625 -8.765625 -3.296875 C -8.765625 -1.46875 -7.15625 -0.375 -4.296875 -0.375 C -1.421875 -0.375 0.1875 -1.46875 0.1875 -3.296875 C 0.1875 -5.09375 -1.421875 -6.21875 -4.21875 -6.21875 Z M -4.3125 -4.859375 C -1.90625 -4.859375 -0.953125 -4.453125 -0.953125 -3.28125 C -0.953125 -2.15625 -1.953125 -1.734375 -4.28125 -1.734375 C -6.609375 -1.734375 -7.578125 -2.15625 -7.578125 -3.296875 C -7.578125 -4.4375 -6.59375 -4.859375 -4.3125 -4.859375 Z M -4.3125 -4.859375 "/>
</symbol>
</g>
</defs>
<g id="surface1">
<rect x="0" y="0" width="504" height="504" style="fill:rgb(100%,100%,100%);fill-opacity:1;stroke:none;"/>
<path style="fill:none;stroke-width:0.75;stroke-linecap:round;stroke-linejoin:round;stroke:rgb(0%,0%,0%);stroke-opacity:1;stroke-miterlimit:10;" d="M 94.667969 424.800781 L 481.332031 424.800781 "/>
<path style="fill:none;stroke-width:0.75;stroke-linecap:round;stroke-linejoin:round;stroke:rgb(0%,0%,0%);stroke-opacity:1;stroke-miterlimit:10;" d="M 94.667969 424.800781 L 94.667969 432 "/>
<path style="fill:none;stroke-width:0.75;stroke-linecap:round;stroke-linejoin:round;stroke:rgb(0%,0%,0%);stroke-opacity:1;stroke-miterlimit:10;" d="M 172 424.800781 L 172 432 "/>
<path style="fill:none;stroke-width:0.75;stroke-linecap:round;stroke-linejoin:round;stroke:rgb(0%,0%,0%);stroke-opacity:1;stroke-miterlimit:10;" d="M 249.332031 424.800781 L 249.332031 432 "/>
<path style="fill:none;stroke-width:0.75;stroke-linecap:round;stroke-linejoin:round;stroke:rgb(0%,0%,0%);stroke-opacity:1;stroke-miterlimit:10;" d="M 326.667969 424.800781 L 326.667969 432 "/>
<path style="fill:none;stroke-width:0.75;stroke-linecap:round;stroke-linejoin:round;stroke:rgb(0%,0%,0%);stroke-opacity:1;stroke-miterlimit:10;" d="M 404 424.800781 L 404 432 "/>
<path style="fill:none;stroke-width:0.75;stroke-linecap:round;stroke-linejoin:round;stroke:rgb(0%,0%,0%);stroke-opacity:1;stroke-miterlimit:10;" d="M 481.332031 424.800781 L 481.332031 432 "/>
<g style="fill:rgb(0%,0%,0%);fill-opacity:1;">
  <use xlink:href="#glyph0-1" x="91.167969" y="450.495117"/>
</g>
<g style="fill:rgb(0%,0%,0%);fill-opacity:1;">
  <use xlink:href="#glyph0-2" x="168.5" y="450.495117"/>
</g>
<g style="fill:rgb(0%,0%,0%);fill-opacity:1;">
  <use xlink:href="#glyph0-3" x="245.832031" y="450.495117"/>
</g>
<g style="fill:rgb(0%,0%,0%);fill-opacity:1;">
  <use xlink:href="#glyph0-4" x="323.167969" y="450.495117"/>
</g>
<g style="fill:rgb(0%,0%,0%);fill-opacity:1;">
  <use xlink:href="#glyph0-5" x="400.5" y="450.495117"/>
</g>
<g style="fill:rgb(0%,0%,0%);fill-opacity:1;">
  <use xlink:href="#glyph0-6" x="474.332031" y="450.495117"/>
  <use xlink:href="#glyph0-1" x="481.003906" y="450.495117"/>
</g>
<path style="fill:none;stroke-width:0.75;stroke-linecap:round;stroke-linejoin:round;stroke:rgb(0%,0%,0%);stroke-opacity:1;stroke-miterlimit:10;" d="M 79.199219 384.144531 L 79.199219 110.921875 "/>
<path style="fill:none;stroke-width:0.75;stroke-linecap:round;stroke-linejoin:round;stroke:rgb(0%,0%,0%);stroke-opacity:1;stroke-miterlimit:10;" d="M 79.199219 384.144531 L 72 384.144531 "/>
<path style="fill:none;stroke-width:0.75;stroke-linecap:round;stroke-linejoin:round;stroke:rgb(0%,0%,0%);stroke-opacity:1;stroke-miterlimit:10;" d="M 79.199219 329.5 L 72 329.5 "/>
<path style="fill:none;stroke-width:0.75;stroke-linecap:round;stroke-linejoin:round;stroke:rgb(0%,0%,0%);stroke-opacity:1;stroke-miterlimit:10;" d="M 79.199219 274.855469 L 72 274.855469 "/>
<path style="fill:none;stroke-width:0.75;stroke-linecap:round;stroke-linejoin:round;stroke:rgb(0%,0%,0%);stroke-opacity:1;stroke-miterlimit:10;" d="M 79.199219 220.210938 L 72 220.210938 "/>
<path style="fill:none;stroke-width:0.75;stroke-linecap:round;stroke-linejoin:round;stroke:rgb(0%,0%,0%);stroke-opacity:1;stroke-miterlimit:10;" d="M 79.199219 165.566406 L 72 165.566406 "/>
<path style="fill:none;stroke-width:0.75;stroke-linecap:round;stroke-linejoin:round;stroke:rgb(0%,0%,0%);stroke-opacity:1;stroke-miterlimit:10;" d="M 79.199219 110.921875 L 72 110.921875 "/>
<g style="fill:rgb(0%,0%,0%);fill-opacity:1;">
  <use xlink:href="#glyph1-1" x="61.698242" y="387.644531"/>
</g>
<g style="fill:rgb(0%,0%,0%);fill-opacity:1;">
  <use xlink:href="#glyph1-2" x="61.698242" y="333"/>
</g>
<g style="fill:rgb(0%,0%,0%);fill-opacity:1;">
  <use xlink:href="#glyph1-3" x="61.698242" y="278.355469"/>
</g>
<g style="fill:rgb(0%,0%,0%);fill-opacity:1;">
  <use xlink:href="#glyph1-4" x="61.698242" y="223.710938"/>
</g>
<g style="fill:rgb(0%,0%,0%);fill-opacity:1;">
  <use xlink:href="#glyph1-5" x="61.698242" y="172.566406"/>
  <use xlink:href="#glyph1-6" x="61.698242" y="165.894531"/>
</g>
<g style="fill:rgb(0%,0%,0%);fill-opacity:1;">
  <use xlink:href="#glyph1-5" x="61.698242" y="117.921875"/>
  <use xlink:href="#glyph1-1" x="61.698242" y="111.25"/>
</g>
<path style="fill:none;stroke-width:3;stroke-linecap:round;stroke-linejoin:round;stroke:rgb(0%,0%,0%);stroke-opacity:1;stroke-miterlimit:10;" d="M 79.199219 64.800781 L 79.199219 424.800781 L 496.800781 424.800781 "/>
<g style="fill:rgb(0%,0%,0%);fill-opacity:1;">
  <use xlink:href="#glyph0-7" x="211.5" y="479.295898"/>
  <use xlink:href="#glyph0-8" x="214.835938" y="479.295898"/>
  <use xlink:href="#glyph0-9" x="217.5" y="479.295898"/>
  <use xlink:href="#glyph0-10" x="227.496094" y="479.295898"/>
  <use xlink:href="#glyph0-11" x="234.167969" y="479.295898"/>
  <use xlink:href="#glyph0-12" x="237.503906" y="479.295898"/>
  <use xlink:href="#glyph0-13" x="241.5" y="479.295898"/>
  <use xlink:href="#glyph0-14" x="248.171875" y="479.295898"/>
  <use xlink:href="#glyph0-15" x="254.543945" y="479.295898"/>
  <use xlink:href="#glyph0-16" x="260.424805" y="479.295898"/>
  <use xlink:href="#glyph0-11" x="266.424805" y="479.295898"/>
  <use xlink:href="#glyph0-14" x="269.760742" y="479.295898"/>
  <use xlink:href="#glyph0-17" x="276.432617" y="479.295898"/>
  <use xlink:href="#glyph0-7" x="280.068359" y="479.295898"/>
  <use xlink:href="#glyph0-10" x="283.224609" y="479.295898"/>
  <use xlink:href="#glyph0-18" x="289.896484" y="479.295898"/>
  <use xlink:href="#glyph0-11" x="293.892578" y="479.295898"/>
  <use xlink:href="#glyph0-19" x="297.228516" y="479.295898"/>
  <use xlink:href="#glyph0-10" x="303.900391" y="479.295898"/>
  <use xlink:href="#glyph0-18" x="310.572266" y="479.295898"/>
  <use xlink:href="#glyph0-9" x="314.568359" y="479.295898"/>
  <use xlink:href="#glyph0-8" x="324.564453" y="479.295898"/>
  <use xlink:href="#glyph0-20" x="327.228516" y="479.295898"/>
  <use xlink:href="#glyph0-14" x="333.900391" y="479.295898"/>
  <use xlink:href="#glyph0-7" x="340.572266" y="479.295898"/>
  <use xlink:href="#glyph0-8" x="343.908203" y="479.295898"/>
  <use xlink:href="#glyph0-21" x="346.572266" y="479.295898"/>
  <use xlink:href="#glyph0-20" x="353.244141" y="479.295898"/>
  <use xlink:href="#glyph0-22" x="359.916016" y="479.295898"/>
</g>
<path style="fill:none;stroke-width:3;stroke-linecap:round;stroke-linejoin:round;stroke:rgb(0%,0%,0%);stroke-opacity:1;stroke-miterlimit:10;" d="M 94.667969 183.871094 L 481.332031 183.871094 "/>
<path style="fill:none;stroke-width:3;stroke-linecap:round;stroke-linejoin:round;stroke:rgb(100%,0%,0%);stroke-opacity:1;stroke-miterlimit:10;" d="M 94.667969 411.464844 L 98.535156 406.546875 L 102.398438 401.628906 L 125.601562 372.121094 L 129.464844 367.203125 L 156.535156 332.777344 L 160.398438 327.859375 L 183.601562 298.351562 L 187.464844 293.433594 L 214.535156 259.007812 L 218.398438 254.089844 L 241.601562 224.582031 L 245.464844 219.664062 L 272.535156 185.238281 L 276.398438 180.320312 L 288 165.566406 L 299.601562 162.285156 L 303.464844 161.195312 L 318.933594 156.820312 L 322.800781 155.730469 L 330.535156 153.542969 L 334.398438 152.449219 L 338.265625 151.355469 L 342.132812 150.265625 L 353.734375 146.984375 L 357.601562 145.894531 L 361.464844 144.800781 L 373.066406 141.519531 L 376.933594 140.429688 L 388.535156 137.148438 L 392.398438 136.058594 L 407.867188 131.683594 L 411.734375 130.59375 L 415.601562 129.5 L 419.464844 128.40625 L 423.332031 127.3125 L 427.199219 126.222656 L 442.667969 121.847656 L 446.535156 120.757812 L 450.398438 119.664062 L 462 116.382812 L 465.867188 115.292969 L 473.601562 113.105469 L 477.464844 112.011719 L 481.332031 110.921875 "/>
<path style="fill:none;stroke-width:3;stroke-linecap:round;stroke-linejoin:round;stroke:rgb(0%,80.392157%,0%);stroke-opacity:1;stroke-miterlimit:10;" d="M 94.667969 411.464844 L 284.132812 411.464844 L 288 165.566406 L 477.464844 165.566406 L 481.332031 110.921875 "/>
<path style="fill:none;stroke-width:3;stroke-linecap:round;stroke-linejoin:round;stroke:rgb(0%,0%,0%);stroke-opacity:1;stroke-miterlimit:10;" d="M 90 81.359375 L 111.601562 81.359375 "/>
<path style="fill:none;stroke-width:3;stroke-linecap:round;stroke-linejoin:round;stroke:rgb(100%,0%,0%);stroke-opacity:1;stroke-miterlimit:10;" d="M 90 100.078125 L 111.601562 100.078125 "/>
<path style="fill:none;stroke-width:3;stroke-linecap:round;stroke-linejoin:round;stroke:rgb(0%,80.392157%,0%);stroke-opacity:1;stroke-miterlimit:10;" d="M 90 118.800781 L 111.601562 118.800781 "/>
<g style="fill:rgb(0%,0%,0%);fill-opacity:1;">
  <use xlink:href="#glyph0-23" x="122.398438" y="86.135742"/>
  <use xlink:href="#glyph0-23" x="125.734375" y="86.135742"/>
  <use xlink:href="#glyph0-24" x="129.070312" y="86.135742"/>
  <use xlink:href="#glyph0-21" x="135.742188" y="86.135742"/>
  <use xlink:href="#glyph0-16" x="142.414062" y="86.135742"/>
  <use xlink:href="#glyph0-8" x="148.414062" y="86.135742"/>
  <use xlink:href="#glyph0-7" x="151.078125" y="86.135742"/>
  <use xlink:href="#glyph0-8" x="154.414062" y="86.135742"/>
  <use xlink:href="#glyph0-21" x="157.078125" y="86.135742"/>
  <use xlink:href="#glyph0-20" x="163.75" y="86.135742"/>
  <use xlink:href="#glyph0-23" x="170.421875" y="86.135742"/>
  <use xlink:href="#glyph0-25" x="173.757812" y="86.135742"/>
  <use xlink:href="#glyph0-21" x="176.421875" y="86.135742"/>
  <use xlink:href="#glyph0-26" x="183.09375" y="86.135742"/>
  <use xlink:href="#glyph0-14" x="189.09375" y="86.135742"/>
  <use xlink:href="#glyph0-7" x="195.765625" y="86.135742"/>
  <use xlink:href="#glyph0-8" x="199.101562" y="86.135742"/>
  <use xlink:href="#glyph0-21" x="201.765625" y="86.135742"/>
  <use xlink:href="#glyph0-20" x="208.4375" y="86.135742"/>
  <use xlink:href="#glyph0-27" x="213.969727" y="86.135742"/>
  <use xlink:href="#glyph0-14" x="220.102539" y="86.135742"/>
  <use xlink:href="#glyph0-28" x="226.774414" y="86.135742"/>
  <use xlink:href="#glyph0-25" x="233.446289" y="86.135742"/>
  <use xlink:href="#glyph0-10" x="236.110352" y="86.135742"/>
  <use xlink:href="#glyph0-6" x="242.782227" y="86.135742"/>
  <use xlink:href="#glyph0-11" x="249.454102" y="86.135742"/>
  <use xlink:href="#glyph0-12" x="252.790039" y="86.135742"/>
  <use xlink:href="#glyph0-29" x="256.786133" y="86.135742"/>
  <use xlink:href="#glyph0-9" x="263.458008" y="86.135742"/>
  <use xlink:href="#glyph0-21" x="273.454102" y="86.135742"/>
  <use xlink:href="#glyph0-25" x="280.125977" y="86.135742"/>
  <use xlink:href="#glyph0-23" x="282.790039" y="86.135742"/>
  <use xlink:href="#glyph0-9" x="286.125977" y="86.135742"/>
  <use xlink:href="#glyph0-25" x="296.12207" y="86.135742"/>
  <use xlink:href="#glyph0-22" x="298.786133" y="86.135742"/>
</g>
<g style="fill:rgb(0%,0%,0%);fill-opacity:1;">
  <use xlink:href="#glyph0-23" x="122.398438" y="104.854492"/>
  <use xlink:href="#glyph0-23" x="125.734375" y="104.854492"/>
  <use xlink:href="#glyph0-7" x="129.070312" y="104.854492"/>
  <use xlink:href="#glyph0-8" x="132.40625" y="104.854492"/>
  <use xlink:href="#glyph0-9" x="135.070312" y="104.854492"/>
  <use xlink:href="#glyph0-10" x="145.066406" y="104.854492"/>
  <use xlink:href="#glyph0-7" x="151.619141" y="104.854492"/>
  <use xlink:href="#glyph0-14" x="154.955078" y="104.854492"/>
  <use xlink:href="#glyph0-28" x="161.626953" y="104.854492"/>
  <use xlink:href="#glyph0-25" x="168.298828" y="104.854492"/>
  <use xlink:href="#glyph0-10" x="170.962891" y="104.854492"/>
  <use xlink:href="#glyph0-6" x="177.634766" y="104.854492"/>
  <use xlink:href="#glyph0-11" x="184.306641" y="104.854492"/>
  <use xlink:href="#glyph0-12" x="187.642578" y="104.854492"/>
  <use xlink:href="#glyph0-29" x="191.638672" y="104.854492"/>
  <use xlink:href="#glyph0-9" x="198.310547" y="104.854492"/>
  <use xlink:href="#glyph0-21" x="208.306641" y="104.854492"/>
  <use xlink:href="#glyph0-25" x="214.978516" y="104.854492"/>
  <use xlink:href="#glyph0-23" x="217.642578" y="104.854492"/>
  <use xlink:href="#glyph0-9" x="220.978516" y="104.854492"/>
  <use xlink:href="#glyph0-25" x="230.974609" y="104.854492"/>
  <use xlink:href="#glyph0-22" x="233.638672" y="104.854492"/>
</g>
<g style="fill:rgb(0%,0%,0%);fill-opacity:1;">
  <use xlink:href="#glyph0-23" x="122.398438" y="123.577148"/>
  <use xlink:href="#glyph0-23" x="125.734375" y="123.577148"/>
  <use xlink:href="#glyph0-7" x="129.070312" y="123.577148"/>
  <use xlink:href="#glyph0-8" x="132.40625" y="123.577148"/>
  <use xlink:href="#glyph0-9" x="135.070312" y="123.577148"/>
  <use xlink:href="#glyph0-10" x="145.066406" y="123.577148"/>
  <use xlink:href="#glyph0-7" x="151.619141" y="123.577148"/>
  <use xlink:href="#glyph0-14" x="154.955078" y="123.577148"/>
  <use xlink:href="#glyph0-28" x="161.626953" y="123.577148"/>
  <use xlink:href="#glyph0-25" x="168.298828" y="123.577148"/>
  <use xlink:href="#glyph0-10" x="170.962891" y="123.577148"/>
  <use xlink:href="#glyph0-30" x="177.634766" y="123.577148"/>
  <use xlink:href="#glyph0-7" x="185.579102" y="123.577148"/>
  <use xlink:href="#glyph0-10" x="188.735352" y="123.577148"/>
  <use xlink:href="#glyph0-24" x="195.407227" y="123.577148"/>
  <use xlink:href="#glyph0-31" x="202.079102" y="123.577148"/>
  <use xlink:href="#glyph0-29" x="208.991211" y="123.577148"/>
  <use xlink:href="#glyph0-20" x="215.663086" y="123.577148"/>
  <use xlink:href="#glyph0-26" x="222.334961" y="123.577148"/>
  <use xlink:href="#glyph0-7" x="228.334961" y="123.577148"/>
  <use xlink:href="#glyph0-8" x="231.670898" y="123.577148"/>
  <use xlink:href="#glyph0-21" x="234.334961" y="123.577148"/>
  <use xlink:href="#glyph0-20" x="241.006836" y="123.577148"/>
  <use xlink:href="#glyph0-6" x="247.678711" y="123.577148"/>
  <use xlink:href="#glyph0-11" x="254.350586" y="123.577148"/>
  <use xlink:href="#glyph0-12" x="257.686523" y="123.577148"/>
  <use xlink:href="#glyph0-29" x="261.682617" y="123.577148"/>
  <use xlink:href="#glyph0-9" x="268.354492" y="123.577148"/>
  <use xlink:href="#glyph0-21" x="278.350586" y="123.577148"/>
  <use xlink:href="#glyph0-25" x="285.022461" y="123.577148"/>
  <use xlink:href="#glyph0-23" x="287.686523" y="123.577148"/>
  <use xlink:href="#glyph0-9" x="291.022461" y="123.577148"/>
  <use xlink:href="#glyph0-25" x="301.018555" y="123.577148"/>
  <use xlink:href="#glyph0-22" x="303.682617" y="123.577148"/>
</g>
</g>
</svg>
